/Users/sromic/Dropbox/upwork/cloudyReports/forwarder/domain/src/main/java/com/upwork/cloudy/reports/domain/models/ApiResponse.java
/Users/sromic/Dropbox/upwork/cloudyReports/forwarder/domain/src/main/java/com/upwork/cloudy/reports/domain/models/ApiError.java
/Users/sromic/Dropbox/upwork/cloudyReports/forwarder/domain/src/main/java/com/upwork/cloudy/reports/domain/models/ApiEvent.java
/Users/sromic/Dropbox/upwork/cloudyReports/forwarder/domain/src/main/java/com/upwork/cloudy/reports/domain/models/ApiRequestType.java
/Users/sromic/Dropbox/upwork/cloudyReports/forwarder/domain/src/main/java/com/upwork/cloudy/reports/domain/models/AbstractApi.java
/Users/sromic/Dropbox/upwork/cloudyReports/forwarder/domain/src/main/java/com/upwork/cloudy/reports/domain/models/ApiRequest.java
